Lab1/simulation/qsim/Lab1.msim.vcd
$comment
	File created using the following command:
		vcd file Lab1.msim.vcd -direction
$end
$date
	Fri Feb 09 10:50:41 2024
$end
$version
	ModelSim Version 10.1d
$end
$timescale
	1ps
$end
$scope module shift_multiplier_8_bit_data_vlg_vec_tst $end
$var reg 8 ! i_a [7:0] $end
$var reg 8 " i_b [7:0] $end
$var reg 1 # i_clock $end
$var reg 1 $ i_initialize $end
$var reg 1 % i_loadOut $end
$var reg 1 & i_loadPR $end
$var reg 1 ' i_setCounter $end
$var reg 1 ( i_shift $end
$var wire 1 ) o_countDone $end
$var wire 1 * o_multiplier_LSB $end
$var wire 1 + o_multiplier_second_LSB $end
$var wire 1 , o_product [15] $end
$var wire 1 - o_product [14] $end
$var wire 1 . o_product [13] $end
$var wire 1 / o_product [12] $end
$var wire 1 0 o_product [11] $end
$var wire 1 1 o_product [10] $end
$var wire 1 2 o_product [9] $end
$var wire 1 3 o_product [8] $end
$var wire 1 4 o_product [7] $end
$var wire 1 5 o_product [6] $end
$var wire 1 6 o_product [5] $end
$var wire 1 7 o_product [4] $end
$var wire 1 8 o_product [3] $end
$var wire 1 9 o_product [2] $end
$var wire 1 : o_product [1] $end
$var wire 1 ; o_product [0] $end
$var wire 1 < sampler $end
$scope module i1 $end
$var wire 1 = gnd $end
$var wire 1 > vcc $end
$var wire 1 ? unknown $end
$var tri1 1 @ devclrn $end
$var tri1 1 A devpor $end
$var tri1 1 B devoe $end
$var wire 1 C o_multiplier_LSB~output_o $end
$var wire 1 D o_multiplier_second_LSB~output_o $end
$var wire 1 E o_countDone~output_o $end
$var wire 1 F o_product[0]~output_o $end
$var wire 1 G o_product[1]~output_o $end
$var wire 1 H o_product[2]~output_o $end
$var wire 1 I o_product[3]~output_o $end
$var wire 1 J o_product[4]~output_o $end
$var wire 1 K o_product[5]~output_o $end
$var wire 1 L o_product[6]~output_o $end
$var wire 1 M o_product[7]~output_o $end
$var wire 1 N o_product[8]~output_o $end
$var wire 1 O o_product[9]~output_o $end
$var wire 1 P o_product[10]~output_o $end
$var wire 1 Q o_product[11]~output_o $end
$var wire 1 R o_product[12]~output_o $end
$var wire 1 S o_product[13]~output_o $end
$var wire 1 T o_product[14]~output_o $end
$var wire 1 U o_product[15]~output_o $end
$var wire 1 V i_clock~input_o $end
$var wire 1 W i_clock~inputclkctrl_outclk $end
$var wire 1 X i_shift~input_o $end
$var wire 1 Y i_b[0]~input_o $end
$var wire 1 Z i_b[1]~input_o $end
$var wire 1 [ i_b[2]~input_o $end
$var wire 1 \ i_b[3]~input_o $end
$var wire 1 ] i_b[4]~input_o $end
$var wire 1 ^ i_b[5]~input_o $end
$var wire 1 _ i_b[6]~input_o $end
$var wire 1 ` i_b[7]~input_o $end
$var wire 1 a multiplier|perbitloop:8:mux_i|int_Value0~combout $end
$var wire 1 b i_initialize~input_o $end
$var wire 1 c multiplier|int_load_shiftr~combout $end
$var wire 1 d multiplier|perbitloop:8:reg_i|perbitloop:1:dFF_i|int_q~q $end
$var wire 1 e multiplier|perbitloop:7:reg_i|perbitloop:1:mux_i|o_Value~0_combout $end
$var wire 1 f multiplier|perbitloop:7:reg_i|perbitloop:1:dFF_i|int_q~q $end
$var wire 1 g multiplier|perbitloop:6:reg_i|perbitloop:1:mux_i|o_Value~0_combout $end
$var wire 1 h multiplier|perbitloop:6:reg_i|perbitloop:1:dFF_i|int_q~q $end
$var wire 1 i multiplier|perbitloop:5:reg_i|perbitloop:1:mux_i|o_Value~0_combout $end
$var wire 1 j multiplier|perbitloop:5:reg_i|perbitloop:1:dFF_i|int_q~q $end
$var wire 1 k multiplier|perbitloop:4:reg_i|perbitloop:1:mux_i|o_Value~0_combout $end
$var wire 1 l multiplier|perbitloop:4:reg_i|perbitloop:1:dFF_i|int_q~q $end
$var wire 1 m multiplier|perbitloop:3:reg_i|perbitloop:1:mux_i|o_Value~0_combout $end
$var wire 1 n multiplier|perbitloop:3:reg_i|perbitloop:1:dFF_i|int_q~q $end
$var wire 1 o multiplier|perbitloop:2:reg_i|perbitloop:1:mux_i|o_Value~0_combout $end
$var wire 1 p multiplier|perbitloop:2:reg_i|perbitloop:1:dFF_i|int_q~q $end
$var wire 1 q multiplier|perbitloop:1:reg_i|perbitloop:1:mux_i|o_Value~0_combout $end
$var wire 1 r multiplier|perbitloop:1:reg_i|perbitloop:1:dFF_i|int_q~q $end
$var wire 1 s i_setCounter~input_o $end
$var wire 1 t counter|mux_dff_gen:2:mux_i|int_Value0~0_combout $end
$var wire 1 u counter|mux_dff_gen:2:mux_i|int_Value0~1_combout $end
$var wire 1 v counter|mux_dff_gen:2:dff_i|int_q~q $end
$var wire 1 w counter|mux_dff_gen:3:mux_i|int_Value0~0_combout $end
$var wire 1 x counter|mux_dff_gen:3:dff_i|int_q~q $end
$var wire 1 y counter|mux_dff_gen:0:mux_i|int_Value0~0_combout $end
$var wire 1 z counter|mux_dff_gen:0:mux_i|int_Value0~1_combout $end
$var wire 1 { counter|mux_dff_gen:0:dff_i|int_q~q $end
$var wire 1 | counter|mux_dff_gen:1:mux_i|int_Value0~0_combout $end
$var wire 1 } counter|mux_dff_gen:1:dff_i|int_q~q $end
$var wire 1 ~ comparator|cmp_loop:1:cmp_i|o_lt~0_combout $end
$var wire 1 !! i_a[0]~input_o $end
$var wire 1 "! multiplicand|mux_1|int_Value0~combout $end
$var wire 1 #! multiplicand|reg_1|perbitloop:1:dFF_i|int_q~q $end
$var wire 1 $! i_loadPR~input_o $end
$var wire 1 %! productReg|reg1|perbitloop:1:mux_i|o_Value~0_combout $end
$var wire 1 &! productReg|reg1|perbitloop:1:dFF_i|int_q~q $end
$var wire 1 '! outputReg|perbitloop:1:dFF_i|int_q~feeder_combout $end
$var wire 1 (! i_loadOut~input_o $end
$var wire 1 )! outputReg|perbitloop:1:dFF_i|int_q~q $end
$var wire 1 *! i_a[1]~input_o $end
$var wire 1 +! multiplicand|perbitloop:2:reg_i|perbitloop:1:mux_i|o_Value~0_combout $end
$var wire 1 ,! multiplicand|perbitloop:2:reg_i|perbitloop:1:dFF_i|int_q~q $end
$var wire 1 -! adder|adderloop:1:addr_i|o_sum~0_combout $end
$var wire 1 .! productReg|reg1|perbitloop:16:dFF_i|int_q~0_combout $end
$var wire 1 /! productReg|reg1|perbitloop:2:dFF_i|int_q~q $end
$var wire 1 0! outputReg|perbitloop:2:dFF_i|int_q~q $end
$var wire 1 1! adder|adderloop:1:addr_i|o_carry~0_combout $end
$var wire 1 2! i_a[2]~input_o $end
$var wire 1 3! multiplicand|perbitloop:3:reg_i|perbitloop:1:mux_i|o_Value~0_combout $end
$var wire 1 4! multiplicand|perbitloop:3:reg_i|perbitloop:1:dFF_i|int_q~q $end
$var wire 1 5! adder|adderloop:2:addr_i|o_sum~0_combout $end
$var wire 1 6! productReg|reg1|perbitloop:3:dFF_i|int_q~q $end
$var wire 1 7! outputReg|perbitloop:3:dFF_i|int_q~feeder_combout $end
$var wire 1 8! outputReg|perbitloop:3:dFF_i|int_q~q $end
$var wire 1 9! i_a[3]~input_o $end
$var wire 1 :! multiplicand|perbitloop:4:reg_i|perbitloop:1:mux_i|o_Value~0_combout $end
$var wire 1 ;! multiplicand|perbitloop:4:reg_i|perbitloop:1:dFF_i|int_q~q $end
$var wire 1 <! adder|adderloop:3:addr_i|o_sum~0_combout $end
$var wire 1 =! adder|adderloop:3:addr_i|o_sum~combout $end
$var wire 1 >! productReg|reg1|perbitloop:4:dFF_i|int_q~q $end
$var wire 1 ?! outputReg|perbitloop:4:dFF_i|int_q~feeder_combout $end
$var wire 1 @! outputReg|perbitloop:4:dFF_i|int_q~q $end
$var wire 1 A! i_a[4]~input_o $end
$var wire 1 B! multiplicand|perbitloop:5:reg_i|perbitloop:1:mux_i|o_Value~0_combout $end
$var wire 1 C! multiplicand|perbitloop:5:reg_i|perbitloop:1:dFF_i|int_q~q $end
$var wire 1 D! adder|adderloop:3:addr_i|o_carry~1_combout $end
$var wire 1 E! adder|adderloop:3:addr_i|o_carry~2_combout $end
$var wire 1 F! adder|adderloop:3:addr_i|o_carry~0_combout $end
$var wire 1 G! adder|adderloop:4:addr_i|o_sum~combout $end
$var wire 1 H! productReg|reg1|perbitloop:5:dFF_i|int_q~q $end
$var wire 1 I! outputReg|perbitloop:5:dFF_i|int_q~feeder_combout $end
$var wire 1 J! outputReg|perbitloop:5:dFF_i|int_q~q $end
$var wire 1 K! i_a[5]~input_o $end
$var wire 1 L! multiplicand|perbitloop:6:reg_i|perbitloop:1:mux_i|o_Value~0_combout $end
$var wire 1 M! multiplicand|perbitloop:6:reg_i|perbitloop:1:dFF_i|int_q~q $end
$var wire 1 N! adder|adderloop:4:addr_i|o_carry~0_combout $end
$var wire 1 O! adder|adderloop:5:addr_i|o_sum~combout $end
$var wire 1 P! productReg|reg1|perbitloop:6:dFF_i|int_q~q $end
$var wire 1 Q! outputReg|perbitloop:6:dFF_i|int_q~q $end
$var wire 1 R! i_a[6]~input_o $end
$var wire 1 S! multiplicand|perbitloop:7:reg_i|perbitloop:1:mux_i|o_Value~0_combout $end
$var wire 1 T! multiplicand|perbitloop:7:reg_i|perbitloop:1:dFF_i|int_q~q $end
$var wire 1 U! adder|adderloop:6:addr_i|o_sum~0_combout $end
$var wire 1 V! adder|adderloop:6:addr_i|o_sum~combout $end
$var wire 1 W! productReg|reg1|perbitloop:7:dFF_i|int_q~q $end
$var wire 1 X! outputReg|perbitloop:7:dFF_i|int_q~feeder_combout $end
$var wire 1 Y! outputReg|perbitloop:7:dFF_i|int_q~q $end
$var wire 1 Z! adder|adderloop:6:addr_i|o_carry~0_combout $end
$var wire 1 [! i_a[7]~input_o $end
$var wire 1 \! multiplicand|perbitloop:8:reg_i|perbitloop:1:mux_i|o_Value~0_combout $end
$var wire 1 ]! multiplicand|perbitloop:8:reg_i|perbitloop:1:dFF_i|int_q~q $end
$var wire 1 ^! adder|adderloop:6:addr_i|o_carry~1_combout $end
$var wire 1 _! adder|adderloop:6:addr_i|o_carry~2_combout $end
$var wire 1 `! adder|adderloop:7:addr_i|o_sum~combout $end
$var wire 1 a! productReg|reg1|perbitloop:8:dFF_i|int_q~q $end
$var wire 1 b! outputReg|perbitloop:8:dFF_i|int_q~feeder_combout $end
$var wire 1 c! outputReg|perbitloop:8:dFF_i|int_q~q $end
$var wire 1 d! multiplicand|perbitloop:9:mux_i|int_Value1~combout $end
$var wire 1 e! multiplicand|perbitloop:9:reg_i|perbitloop:1:dFF_i|int_q~q $end
$var wire 1 f! adder|adderloop:7:addr_i|o_carry~0_combout $end
$var wire 1 g! adder|adderloop:8:addr_i|o_sum~combout $end
$var wire 1 h! productReg|reg1|perbitloop:9:dFF_i|int_q~q $end
$var wire 1 i! outputReg|perbitloop:9:dFF_i|int_q~feeder_combout $end
$var wire 1 j! outputReg|perbitloop:9:dFF_i|int_q~q $end
$var wire 1 k! multiplicand|perbitloop:10:mux_i|int_Value1~combout $end
$var wire 1 l! multiplicand|perbitloop:10:reg_i|perbitloop:1:dFF_i|int_q~q $end
$var wire 1 m! adder|adderloop:9:addr_i|o_sum~0_combout $end
$var wire 1 n! adder|adderloop:9:addr_i|o_sum~combout $end
$var wire 1 o! productReg|reg1|perbitloop:10:dFF_i|int_q~q $end
$var wire 1 p! outputReg|perbitloop:10:dFF_i|int_q~feeder_combout $end
$var wire 1 q! outputReg|perbitloop:10:dFF_i|int_q~q $end
$var wire 1 r! adder|adderloop:9:addr_i|o_carry~0_combout $end
$var wire 1 s! multiplicand|perbitloop:11:mux_i|int_Value1~combout $end
$var wire 1 t! multiplicand|perbitloop:11:reg_i|perbitloop:1:dFF_i|int_q~q $end
$var wire 1 u! adder|adderloop:9:addr_i|o_carry~1_combout $end
$var wire 1 v! adder|adderloop:9:addr_i|o_carry~2_combout $end
$var wire 1 w! adder|adderloop:10:addr_i|o_sum~combout $end
$var wire 1 x! productReg|reg1|perbitloop:11:dFF_i|int_q~q $end
$var wire 1 y! outputReg|perbitloop:11:dFF_i|int_q~feeder_combout $end
$var wire 1 z! outputReg|perbitloop:11:dFF_i|int_q~q $end
$var wire 1 {! multiplicand|perbitloop:12:mux_i|int_Value1~combout $end
$var wire 1 |! multiplicand|perbitloop:12:reg_i|perbitloop:1:dFF_i|int_q~q $end
$var wire 1 }! adder|adderloop:10:addr_i|o_carry~0_combout $end
$var wire 1 ~! adder|adderloop:11:addr_i|o_sum~combout $end
$var wire 1 !" productReg|reg1|perbitloop:12:dFF_i|int_q~q $end
$var wire 1 "" outputReg|perbitloop:12:dFF_i|int_q~feeder_combout $end
$var wire 1 #" outputReg|perbitloop:12:dFF_i|int_q~q $end
$var wire 1 $" multiplicand|perbitloop:13:mux_i|int_Value1~combout $end
$var wire 1 %" multiplicand|perbitloop:13:reg_i|perbitloop:1:dFF_i|int_q~q $end
$var wire 1 &" adder|adderloop:12:addr_i|o_sum~0_combout $end
$var wire 1 '" adder|adderloop:12:addr_i|o_sum~combout $end
$var wire 1 (" productReg|reg1|perbitloop:13:dFF_i|int_q~q $end
$var wire 1 )" outputReg|perbitloop:13:dFF_i|int_q~q $end
$var wire 1 *" adder|adderloop:12:addr_i|o_carry~0_combout $end
$var wire 1 +" multiplicand|perbitloop:14:mux_i|int_Value1~combout $end
$var wire 1 ," multiplicand|perbitloop:14:reg_i|perbitloop:1:dFF_i|int_q~q $end
$var wire 1 -" adder|adderloop:12:addr_i|o_carry~1_combout $end
$var wire 1 ." adder|adderloop:12:addr_i|o_carry~2_combout $end
$var wire 1 /" adder|adderloop:13:addr_i|o_sum~combout $end
$var wire 1 0" productReg|reg1|perbitloop:14:dFF_i|int_q~q $end
$var wire 1 1" outputReg|perbitloop:14:dFF_i|int_q~feeder_combout $end
$var wire 1 2" outputReg|perbitloop:14:dFF_i|int_q~q $end
$var wire 1 3" multiplicand|perbitloop:15:mux_i|int_Value1~combout $end
$var wire 1 4" multiplicand|perbitloop:15:reg_i|perbitloop:1:dFF_i|int_q~q $end
$var wire 1 5" adder|adderloop:14:addr_i|o_sum~0_combout $end
$var wire 1 6" adder|adderloop:14:addr_i|o_sum~1_combout $end
$var wire 1 7" productReg|reg1|perbitloop:15:dFF_i|int_q~q $end
$var wire 1 8" outputReg|perbitloop:15:dFF_i|int_q~feeder_combout $end
$var wire 1 9" outputReg|perbitloop:15:dFF_i|int_q~q $end
$var wire 1 :" multiplicand|perbitloop:16:mux_i|int_Value1~combout $end
$var wire 1 ;" multiplicand|perbitloop:16:reg_i|perbitloop:1:dFF_i|int_q~q $end
$var wire 1 <" adder|adderloop:15:addr_i|o_sum~0_combout $end
$var wire 1 =" adder|adderloop:15:addr_i|o_sum~combout $end
$var wire 1 >" productReg|reg1|perbitloop:16:dFF_i|int_q~q $end
$var wire 1 ?" outputReg|perbitloop:16:dFF_i|int_q~feeder_combout $end
$var wire 1 @" outputReg|perbitloop:16:dFF_i|int_q~q $end
$upscope $end
$upscope $end
$enddefinitions $end
#0
$dumpvars
b101 !
b110 "
0#
0$
0%
0&
0'
0(
1)
0*
0+
0;
0:
09
08
07
06
05
04
03
02
01
00
0/
0.
0-
0,
x<
0=
1>
x?
1@
1A
1B
0C
0D
1E
0F
0G
0H
0I
0J
0K
0L
0M
0N
0O
0P
0Q
0R
0S
0T
0U
0V
0W
0X
0Y
1Z
1[
0\
0]
0^
0_
0`
0a
0b
0c
0d
0e
0f
0g
0h
0i
0j
0k
0l
1m
0n
1o
0p
0q
0r
0s
0t
0u
0v
0w
0x
0y
1z
0{
0|
0}
0~
1!!
1"!
0#!
0$!
0%!
0&!
0'!
0(!
0)!
0*!
0+!
0,!
0-!
0.!
0/!
00!
01!
12!
13!
04!
05!
06!
07!
08!
09!
0:!
0;!
0<!
0=!
0>!
0?!
0@!
0A!
0B!
0C!
0D!
0E!
0F!
0G!
0H!
0I!
0J!
0K!
0L!
0M!
0N!
0O!
0P!
0Q!
0R!
0S!
0T!
0U!
0V!
0W!
0X!
0Y!
0Z!
0[!
0\!
0]!
0^!
0_!
0`!
0a!
0b!
0c!
0d!
0e!
0f!
0g!
0h!
0i!
0j!
0k!
0l!
0m!
0n!
0o!
0p!
0q!
0r!
0s!
0t!
0u!
0v!
0w!
0x!
0y!
0z!
0{!
0|!
0}!
0~!
0!"
0""
0#"
0$"
0%"
0&"
0'"
0("
0)"
0*"
0+"
0,"
0-"
0."
0/"
00"
01"
02"
03"
04"
05"
06"
07"
08"
09"
0:"
0;"
0<"
0="
0>"
0?"
0@"
$end
#500
1#
1V
1W
0<
1{
1|
0z
#1000
0#
0V
0W
1<
#1500
1#
1V
1W
0<
1}
0{
1z
#2000
1$
1'
0#
1b
1s
0V
0W
1<
1.!
1c
0|
0z
#2500
1#
1V
1W
0<
14!
1#!
0}
1n
1p
15!
1D
1+
#3000
0$
0'
0#
0b
0s
0V
0W
1<
0.!
0c
1z
#3500
1#
1V
1W
0<
1{
1|
0z
#4000
1(
0#
1X
0V
0W
1<
1:!
03!
1+!
0"!
1q
0m
1c
#4500
1#
1V
1W
0<
1;!
04!
1,!
0#!
1}
0{
0n
1r
1D!
1B!
1<!
0:!
05!
13!
1-!
0+!
1z
0o
1C
1*
1=!
#5000
1&
0#
1$!
0V
0W
1<
1.!
#5500
1#
1V
1W
0<
1C!
1>!
0;!
14!
1/!
0,!
1{
0p
1L!
1G!
1?!
0=!
0B!
0<!
1:!
15!
03!
0|
0z
1t
0q
0D
0+
1=!
1u
#6000
0#
0V
0W
1<
#6500
1#
1V
1W
0<
1M!
1H!
0C!
1;!
16!
04!
0}
0{
1v
0r
1S!
1O!
1I!
0L!
1F!
1B!
1<!
17!
0:!
0t
1z
1w
0u
0C
0*
1N!
0G!
0=!
0w
1u
1V!
0O!
#7000
1%
0(
0&
0#
1(!
0X
0$!
0V
0W
1<
0S!
0B!
13!
1"!
1o
1m
0c
0.!
#7500
1#
1V
1W
0<
1{
1J!
1@!
18!
10!
1|
0z
1J
1I
1H
1G
17
18
19
1:
#8000
0%
0#
0(!
0V
0W
1<
#8500
1#
1V
1W
0<
1}
0{
1z
#9000
0#
0V
0W
1<
#9500
1#
1V
1W
0<
1{
0|
0z
1t
1w
0u
#10000
0#
0V
0W
1<
#10500
1#
1V
1W
0<
0}
0{
1x
0v
0t
1z
1u
0u
#11000
0#
0V
0W
1<
#11500
1#
1V
1W
0<
1{
1~
1|
0z
0E
0)
#12000
0#
0V
0W
1<
#12500
1#
1V
1W
0<
1}
0{
1z
#13000
0#
0V
0W
1<
#13500
1#
1V
1W
0<
1{
0|
0z
1t
1u
#14000
0#
0V
0W
1<
#14500
1#
1V
1W
0<
0}
0{
1v
0t
1z
#15000
0#
0V
0W
1<
#15500
1#
1V
1W
0<
1{
1|
0z
#16000
0#
0V
0W
1<
#16500
1#
1V
1W
0<
1}
0{
1y
1z
#17000
0#
0V
0W
1<
#17500
1#
1V
1W
0<
1{
1t
#18000
0#
0V
0W
1<
#18500
1#
1V
1W
0<
#19000
0#
0V
0W
1<
#19500
1#
1V
1W
0<
#20000
0#
0V
0W
1<
#20500
1#
1V
1W
0<
#21000
0#
0V
0W
1<
#21500
1#
1V
1W
0<
#22000
0#
0V
0W
1<
#22500
1#
1V
1W
0<
#23000
0#
0V
0W
1<
#23500
1#
1V
1W
0<
#24000
0#
0V
0W
1<
#24500
1#
1V
1W
0<
#25000
0#
0V
0W
1<
#25500
1#
1V
1W
0<
#26000
0#
0V
0W
1<
#26500
1#
1V
1W
0<
#27000
0#
0V
0W
1<
#27500
1#
1V
1W
0<
#28000
0#
0V
0W
1<
#28500
1#
1V
1W
0<
#29000
0#
0V
0W
1<
#29500
1#
1V
1W
0<
#30000
0#
0V
0W
1<
#30500
1#
1V
1W
0<
#31000
0#
0V
0W
1<
#31500
1#
1V
1W
0<
#32000
0#
0V
0W
1<
#32500
1#
1V
1W
0<
#33000
0#
0V
0W
1<
#33500
1#
1V
1W
0<
#34000
0#
0V
0W
1<
#34500
1#
1V
1W
0<
#35000
0#
0V
0W
1<
#35500
1#
1V
1W
0<
#36000
0#
0V
0W
1<
#36500
1#
1V
1W
0<
#37000
0#
0V
0W
1<
#37500
1#
1V
1W
0<
#38000
0#
0V
0W
1<
#38500
1#
1V
1W
0<
#39000
0#
0V
0W
1<
#39500
1#
1V
1W
0<
#40000
0#
0V
0W
1<
#40500
1#
1V
1W
0<
#41000
0#
0V
0W
1<
#41500
1#
1V
1W
0<
#42000
0#
0V
0W
1<
#42500
1#
1V
1W
0<
#43000
0#
0V
0W
1<
#43500
1#
1V
1W
0<
#44000
0#
0V
0W
1<
#44500
1#
1V
1W
0<
#45000
0#
0V
0W
1<
#45500
1#
1V
1W
0<
#46000
0#
0V
0W
1<
#46500
1#
1V
1W
0<
#47000
0#
0V
0W
1<
#47500
1#
1V
1W
0<
#48000
0#
0V
0W
1<
#48500
1#
1V
1W
0<
#49000
0#
0V
0W
1<
#49500
1#
1V
1W
0<
#50000
0#
0V
0W
1<
#50500
1#
1V
1W
0<
#51000
0#
0V
0W
1<
#51500
1#
1V
1W
0<
#52000
0#
0V
0W
1<
#52500
1#
1V
1W
0<
#53000
0#
0V
0W
1<
#53500
1#
1V
1W
0<
#54000
0#
0V
0W
1<
#54500
1#
1V
1W
0<
#55000
0#
0V
0W
1<
#55500
1#
1V
1W
0<
#56000
0#
0V
0W
1<
#56500
1#
1V
1W
0<
#57000
0#
0V
0W
1<
#57500
1#
1V
1W
0<
#58000
0#
0V
0W
1<
#58500
1#
1V
1W
0<
#59000
0#
0V
0W
1<
#59500
1#
1V
1W
0<
#60000
0#
0V
0W
1<
#60500
1#
1V
1W
0<
#61000
0#
0V
0W
1<
#61500
1#
1V
1W
0<
#62000
0#
0V
0W
1<
#62500
1#
1V
1W
0<
#63000
0#
0V
0W
1<
#63500
1#
1V
1W
0<
#64000
0#
0V
0W
1<
#64500
1#
1V
1W
0<
#65000
0#
0V
0W
1<
#65500
1#
1V
1W
0<
#66000
0#
0V
0W
1<
#66500
1#
1V
1W
0<
#67000
0#
0V
0W
1<
#67500
1#
1V
1W
0<
#68000
0#
0V
0W
1<
#68500
1#
1V
1W
0<
#69000
0#
0V
0W
1<
#69500
1#
1V
1W
0<
#70000
0#
0V
0W
1<
#70500
1#
1V
1W
0<
#71000
0#
0V
0W
1<
#71500
1#
1V
1W
0<
#72000
0#
0V
0W
1<
#72500
1#
1V
1W
0<
#73000
0#
0V
0W
1<
#73500
1#
1V
1W
0<
#74000
0#
0V
0W
1<
#74500
1#
1V
1W
0<
#75000
0#
0V
0W
1<
#75500
1#
1V
1W
0<
#76000
0#
0V
0W
1<
#76500
1#
1V
1W
0<
#77000
0#
0V
0W
1<
#77500
1#
1V
1W
0<
#78000
0#
0V
0W
1<
#78500
1#
1V
1W
0<
#79000
0#
0V
0W
1<
#79500
1#
1V
1W
0<
#80000
0#
0V
0W
1<
#80500
1#
1V
1W
0<
#81000
0#
0V
0W
1<
#81500
1#
1V
1W
0<
#82000
0#
0V
0W
1<
#82500
1#
1V
1W
0<
#83000
0#
0V
0W
1<
#83500
1#
1V
1W
0<
#84000
0#
0V
0W
1<
#84500
1#
1V
1W
0<
#85000
0#
0V
0W
1<
#85500
1#
1V
1W
0<
#86000
0#
0V
0W
1<
#86500
1#
1V
1W
0<
#87000
0#
0V
0W
1<
#87500
1#
1V
1W
0<
#88000
0#
0V
0W
1<
#88500
1#
1V
1W
0<
#89000
0#
0V
0W
1<
#89500
1#
1V
1W
0<
#90000
0#
0V
0W
1<
#90500
1#
1V
1W
0<
#91000
0#
0V
0W
1<
#91500
1#
1V
1W
0<
#92000
0#
0V
0W
1<
#92500
1#
1V
1W
0<
#93000
0#
0V
0W
1<
#93500
1#
1V
1W
0<
#94000
0#
0V
0W
1<
#94500
1#
1V
1W
0<
#95000
0#
0V
0W
1<
#95500
1#
1V
1W
0<
#96000
0#
0V
0W
1<
#96500
1#
1V
1W
0<
#97000
0#
0V
0W
1<
#97500
1#
1V
1W
0<
#98000
0#
0V
0W
1<
#98500
1#
1V
1W
0<
#99000
0#
0V
0W
1<
#99500
1#
1V
1W
0<
